Gov 50 Final Project
…
#total emissions for each country across all years

total_emissions <- data |>
  group_by(Country) |>
  summarise(total_emissions = sum(Total, na.rm = TRUE)) |>
  arrange(desc(total_emissions))
total_emissions

# A tibble: 256 × 2
   Country                   total_emissions
   <chr>                               <int>
 1 UNITED STATES OF AMERICA        102510260
 2 CHINA (MAINLAND)                 47649834
 3 USSR                             30790355
 4 UNITED KINGDOM                   20500813
 5 JAPAN                            14585037
 6 GERMANY                          12764185
 7 INDIA                            11385351
 8 RUSSIAN FEDERATION               10466421
 9 FRANCE (INCLUDING MONACO)         9697149
10 CANADA                            8038299
# ℹ 246 more rows
…
